<svg width="161" height="67" viewBox="0 0 161 67" fill="none" xmlns="http://www.w3.org/2000/svg">
    <mask id="mask0_486_10211" style="mask-type:alpha" maskUnits="userSpaceOnUse" x="16" y="10" width="130" height="48">
        <path d="M48.3843 48.6571V52.5937L45.8634 48.6571H42.1053V57.3976H45.8634V53.4249L48.2002 57.3976H52.1397V48.6571H48.3843ZM35.5706 50.5253C35.8318 51.9654 36.0489 53.1608 36.2331 54.1922H34.9108C35.051 53.4193 35.2654 52.21 35.5706 50.5253ZM32.3266 48.5764L30.0366 57.3115H34.35L34.6304 55.7435H36.5136L36.7967 57.3115H41.3878L38.8201 48.5764H32.3266ZM64.8682 48.5764V57.3115H72.662V55.5628H69.3658V53.6445H72.1699V51.9793H69.3658V50.3251H72.3624V48.5792H64.8682V48.5764ZM73.6077 48.5764V57.3115H80.8297V55.5628H78.0971V48.5792H73.6077V48.5764ZM102.969 48.5764V51.6985H101.621V48.5764H97.1294V57.3115H101.621V53.6417H102.969V57.3115H107.461V48.5764H102.969ZM108.733 48.5764V57.3115H116.522V55.5628H113.223V53.6445H116.03V51.9793H113.223V50.3251H116.222V48.5792H108.733V48.5764ZM123.747 48.5764V52.5103L121.228 48.5764H117.47V57.3115H121.228V53.3415L123.568 57.3115H127.505V48.5764H123.747ZM54.9933 48.8628C54.1493 49.1797 53.6407 49.5244 53.462 49.8998C53.2833 50.2778 53.1953 50.8839 53.1953 51.7207V54.3173C53.1953 54.9178 53.2366 55.3682 53.3246 55.6684C53.4098 55.9715 53.6215 56.2578 53.9651 56.5303C54.306 56.8027 54.8063 57.0307 55.4634 57.2169C56.1204 57.4032 56.8297 57.4977 57.583 57.4977C58.2153 57.4977 58.7679 57.4282 59.2297 57.2948C59.6998 57.1586 60.0847 56.9556 60.3898 56.6887L60.805 57.3142H63.6311V52.6242H58.3692V53.9503H59.2764V54.9901C59.2764 55.396 59.216 55.6684 59.1005 55.8074C58.9823 55.9492 58.7596 56.0187 58.4297 56.0187C58.1328 56.0187 57.9321 55.9576 57.8331 55.8325C57.7314 55.7073 57.6819 55.4516 57.6819 55.0596V50.8672C57.6819 50.4224 57.7287 50.1472 57.8331 50.036C57.9321 49.9276 58.1218 49.8747 58.3967 49.8747C58.7184 49.8747 58.9191 49.9387 59.0043 50.0638C59.0895 50.1917 59.1335 50.503 59.1335 51.0007V51.793H63.6256V51.4177C63.6256 50.7004 63.4936 50.1527 63.2325 49.7802C62.9685 49.4049 62.3995 49.0796 61.5335 48.8072C60.6648 48.5347 59.5706 48.3957 58.2593 48.3957C56.9259 48.3902 55.8345 48.5486 54.9933 48.8628ZM88.0764 48.6404C87.3259 48.8072 86.7376 49.0379 86.317 49.3298C85.8936 49.6217 85.638 49.9248 85.5527 50.2389C85.4675 50.5531 85.4263 51.0285 85.4263 51.6568V54.2089C85.4263 55.0651 85.5665 55.7046 85.8441 56.1327C86.1218 56.5581 86.6854 56.8944 87.5404 57.1335C88.3953 57.3782 89.4813 57.4977 90.7953 57.4977C92.0655 57.4977 93.1294 57.3532 93.9926 57.0724C94.8586 56.7832 95.4166 56.4524 95.6696 56.0771C95.9197 55.6962 96.0462 55.0568 96.0462 54.1505V53.8113H91.5514V54.9095C91.5514 55.3876 91.4991 55.6907 91.3974 55.8241C91.2929 55.952 91.0758 56.0187 90.7404 56.0187C90.3912 56.0187 90.1685 55.9548 90.0696 55.8241C89.9706 55.6962 89.9184 55.4154 89.9184 54.9929V50.9339C89.9184 50.4891 89.9706 50.2 90.0696 50.0693C90.1685 49.9387 90.405 49.872 90.7734 49.872C91.1005 49.872 91.3122 49.9276 91.4057 50.036C91.5019 50.1472 91.5514 50.4224 91.5514 50.8617V52.3824H96.0435V51.5539C96.0435 50.7366 95.9088 50.1361 95.6393 49.7496C95.3699 49.366 94.8036 49.0407 93.9404 48.7822C93.0799 48.5236 91.9885 48.393 90.6661 48.393C89.6902 48.3902 88.8297 48.4736 88.0764 48.6404ZM78.7788 33.3221L74.24 28.7294L73.6077 29.3661L78.1493 33.9588L73.6077 38.5515L74.24 39.1909L78.7788 34.5954L83.3204 39.1909L83.95 38.5515L79.4084 33.9588L83.95 29.3661L83.3204 28.7294L78.7788 33.3221ZM142.122 17.509V17.7731H142.762V19.2883H143.04V17.7731H143.667V17.509H142.122ZM145.649 17.509L144.964 18.596L144.283 17.509H144.002V19.2883H144.285V18.0261L144.964 19.0853L145.649 18.0205V19.291H145.929V17.5118H145.649V17.509ZM39.9967 12.0017V12.0823L40.816 12.6744V15.1376H36.9094V12.6744L37.7314 12.0823V12.0017H34.8421V12.0823L35.6641 12.6744V18.6127L34.8421 19.2049V19.2883H37.7314V19.2049L36.9094 18.6127V15.7492H40.816V18.6127L39.9967 19.2049V19.2883H42.8833V19.2049L42.0641 18.6127V12.6744L42.8833 12.0823V12.0017H39.9967ZM51.106 12.0017V12.0823L52.0682 12.7996C52.0957 14.1729 52.1204 15.7909 52.1204 17.6147C49.7809 14.501 48.1974 12.7189 47.7575 12.0017H45.6187V12.0823L46.6194 12.7829C46.7046 15.1237 46.7046 17.0336 46.6194 18.5098L45.7837 19.2104V19.2938H48.2524V19.2104L47.3177 18.5126C47.2654 16.7945 47.2352 15.1126 47.2352 13.4529L51.5046 18.8713C51.6311 19.0325 51.796 19.2271 51.796 19.3522H52.794C52.6648 17.4896 52.6538 15.3155 52.7335 12.8023L53.5747 12.0851V12.0044H51.106V12.0017ZM61.5445 12.0017V12.0823L62.5067 12.7996C62.5342 14.1729 62.5562 15.7881 62.5562 17.6147C60.2166 14.501 58.6359 12.7189 58.196 12.0017H56.0572V12.0823L57.0579 12.7829C57.1431 15.1237 57.1431 17.0336 57.0579 18.5098L56.2221 19.2104V19.2938H58.6881V19.2104L57.7562 18.5126C57.7012 16.7945 57.6737 15.1126 57.6737 13.4529L61.9431 18.8713C62.0723 19.0325 62.2345 19.2271 62.2345 19.3522H63.2297C63.1005 17.4896 63.0923 15.3127 63.172 12.8023L64.0132 12.0851V12.0044H61.5445V12.0017ZM66.974 12.0017V12.0823L67.796 12.6744V18.6127L66.974 19.2049V19.2883H69.8634V19.2049L69.0414 18.6127V12.6744L69.8634 12.0823V12.0017H66.974ZM73.0386 12.0017V12.0823L73.8606 12.6744V18.6127L73.0386 19.2049V19.2883H78.8476V17.6897H78.7706L78.0696 18.6766H75.106V15.777H77.3823L77.9431 16.6194H78.0201V14.323H77.9431L77.3823 15.1682H75.106V12.6105H78.0201L78.6222 13.4251H78.6991V12.0017H73.0386ZM108.101 12.0017V12.0823L108.923 12.6744V18.6127L108.101 19.2049V19.2883H113.638V17.6897H113.561L112.857 18.6766H110.166V12.6744L110.988 12.0823V12.0017H108.101ZM116.09 12.0017V12.0823L116.912 12.6744V18.6127L116.09 19.2049V19.2883H118.98V19.2049L118.158 18.6127V15.4239V12.6717L118.98 12.0795V11.9989H116.09V12.0017ZM120.764 12.0017V12.0823L121.127 12.6383C120.118 13.6586 119.004 14.7039 118.16 15.4267L121.077 18.6405L120.766 19.2076V19.291H123.397V19.2076L122.831 18.6405C121.52 17.2644 120.398 16.0689 119.477 15.0514C120.775 13.8171 121.676 13.0053 122.1 12.6605L123.205 12.0823V12.0017H120.764ZM125.797 12.0017V12.0823L126.619 12.6744V18.6127L125.797 19.2049V19.2883H131.609V17.6897H131.529L130.831 18.6766H127.868V15.777H130.144L130.705 16.6194H130.782V14.323H130.702L130.144 15.1682H127.868V12.6105H130.784L131.386 13.4251H131.463V12.0017H125.797ZM136.709 12.6105H137.476H137.839C138.831 12.5966 139.43 13.2082 139.43 13.995C139.43 15.0153 138.751 15.5463 137.503 15.5463H136.706V12.6105H136.709ZM134.641 12.0017V12.0823L135.463 12.6744V18.6127L134.641 19.2049V19.2883H137.531V19.2049L136.709 18.6127V16.1301H137.512C137.806 16.1301 137.971 16.2024 138.114 16.4387L139.796 19.2883H141.443V19.2049C141.308 19.1159 140.841 18.6377 140.676 18.3764L139.532 16.5749C139.287 16.1551 138.993 15.9216 138.493 15.8715C139.818 15.8493 140.868 15.0598 140.868 13.9588C140.868 12.8079 139.719 12.0017 137.982 12.0017H134.641ZM101.55 12.8857L102.749 16.0217H100.371L101.55 12.8857ZM101.322 11.8432L98.7101 18.521L97.8964 19.2076V19.291H100.349V19.2076L99.4331 18.521L100.153 16.6083H102.971L103.703 18.521L102.776 19.2076V19.291H105.918V19.2076L105.096 18.5182L102.41 11.8432H101.322ZM25.5775 15.6436C25.5802 13.7086 26.6414 12.2435 28.2551 12.2435C29.8661 12.2435 30.93 13.7086 30.9328 15.6436C30.9273 17.5757 29.8661 19.0436 28.2551 19.0436C26.6414 19.0436 25.5775 17.5757 25.5775 15.6436ZM24.2194 15.6464C24.2194 17.8593 25.9431 19.6525 28.2551 19.6525C30.5672 19.6525 32.2909 17.8482 32.2909 15.638C32.2909 13.4251 30.5644 11.6319 28.2551 11.6319C25.9404 11.6347 24.2194 13.4417 24.2194 15.6464ZM18.2867 10.1362V10.2141L19.4194 10.9397L19.4304 19.6469C19.4249 21.7959 18.1548 22.3936 17.4758 22.3964C17.3768 22.3936 17.2806 22.3853 17.2806 22.3853C17.2806 22.3853 17.4648 22.2157 17.4648 21.8654C17.4648 21.5262 17.2036 21.2593 16.827 21.2593C16.4778 21.2593 16.1177 21.5401 16.1177 22.035C16.1177 22.5576 16.6538 22.9357 17.2888 22.9302C19.3314 22.9357 20.7692 20.3419 20.7665 18.6739L20.7747 10.9425L21.7727 10.2196V10.139H18.2867V10.1362ZM94.9108 10.1362V10.2169L95.763 10.8674L93.8112 17.5813C93.6902 17.0392 92.9479 14.5482 91.873 10.9397L92.673 10.2169V10.1362H89.5775V10.2169L90.3665 10.9008L88.4311 17.5229L86.5094 10.8869L87.3534 10.2169V10.1362H84.3679V10.2169L85.0881 10.9091C86.4435 15.2488 87.3177 18.0595 87.6421 19.3494H88.5411C89.1211 17.2977 89.8606 14.7762 90.7569 11.7876C91.6641 14.8179 92.4586 17.3311 93.0029 19.3494H93.9541C94.5122 17.2644 95.3589 14.4509 96.4943 10.9147L97.2173 10.2169V10.1362H94.9108Z" fill="white"/>
    </mask>
    <g mask="url(#mask0_486_10211)">
        <path d="M145.93 10.1362H16.1206V57.4949H145.93V10.1362Z" fill="url(#paint0_linear_486_10211)"/>
    </g>
    <defs>
        <linearGradient id="paint0_linear_486_10211" x1="16.1209" y1="33.8214" x2="145.931" y2="33.8214" gradientUnits="userSpaceOnUse">
            <stop stop-color="#F4D683"/>
            <stop offset="0.3532" stop-color="#DBB86C"/>
            <stop offset="1" stop-color="#B08445"/>
        </linearGradient>
    </defs>
</svg>
